Abschlussprojekt
…
count(bib_gefiltert_vor_1800_A)

# A tibble: 1 × 1
      n
  <int>
1    81

print(bib_gefiltert_vor_1800_A)

# A tibble: 81 × 16
   mms_id                    author title publication_date permanent_call_number
   <chr>                     <chr>  <chr>            <dbl> <chr>                
 1 "990091327050205526"      "Sinc… "Die…             1726 Archivabt.: B VIII 3…
 2 "990090920720205526,\"Fa… "& me… "& C…             1652 Archivabt.: E II 18  
 3 "990092475440205526"       <NA>  "Neu…             1682 III AAf 0 LS         
 4 "990092475440205526"       <NA>  "Neu…             1682 III AAf 0 LS         
 5 "990092475440205526"       <NA>  "Neu…             1682 III AAf 0 LS         
 6 "990092475440205526"       <NA>  "Neu…             1682 III AAf 0 LS         
 7 "990092475440205526"       <NA>  "Neu…             1682 III AAf 0 LS         
 8 "990092475440205526"       <NA>  "Neu…             1682 III AAf 0 LS         
 9 "990092475440205526"       <NA>  "Neu…             1682 III AAf 0 LS         
10 "990092475440205526"       <NA>  "Neu…             1682 III AAf 0 LS         
# ℹ 71 more rows
# ℹ 11 more variables: normalized_call_number <chr>, item_call_number <chr>,
#   description <chr>, barcode <chr>, item_policy <chr>, base_status <chr>,
#   process_type <chr>, library_code <chr>, library_name <chr>,
#   location_code <chr>, location_name <chr>
…
